{
    "variants": {
        "type=bottom": { "model": "tardis:block/yellow_crystal_slab" },
        "type=top": { "model": "tardis:block/yellow_crystal_slab_top" },
        "type=double": { "model": "tardis:block/yellow_crystal" }
    }
}