{
	"type": "tardis:quantiscope",
	"repair":false,
	"ingredients":[
		{"item":"tardis:circuits"},
		{"item":"minecraft:diamond"},
		{"item":"tardis:artron_capacitor_mid"},
		{"item":"tardis:circuits"},
		{"item":"tardis:mercury_bottle"}
	],
	"result":{
		"item":"tardis:artron_capacitor_high"
	}
}