{
  "type": "normal",
  "text": "Unstabilized Flight is the default flight mode. It allows a time-ship to fly twice as fast for half the fuel usage compared to Stabilized Flight. In addition, as the time-ship does not have to do any work, it prefers this form of flight. During the flight, the pilot must respond to a variety of events by pressing the correct controls.The pilot has 5-10 seconds to respond. This time period depends on the throttle setting. You have less time to respond if the throttle setting is set higher. If one fails to do this, the time-ship will suffer damage to its sub systems and it can go off course."
}