{
  "type": "minecraft:crafting_shaped",
  "pattern": [
    " b ", 
    "beb",
    " b "
  ],
  "key": {
    "b": {
      "item": "minecraft:black_concrete"
    },
    "e": {
      "item": "tardis:circuits"
    }
  },
  "result": {
    "item": "tardis:wirebox"
  }
}