{
  "type": "normal",
  "text": "Change Interior. A function of your timeship's ARS system, this allows a pilot to select their console room of choice. This requires 100 AU and a 1 minute cooldown time between each change. Changing the console room will delete all items within containers inside the current room, along with armor stands and item frames. All items are saved to the Reclamation Unit. Waypoints in Waypoint Banks will be archived in Data Crystals held in the Reclamation Unit. This protocol requires all occupants inside the timeship to exit the timeship before this reconfiguration process starts and can be cancelled if the pilot changes their mind. When all occupants have exited the timeship, the timeship will need around 5 minutes to complete the process. During this time no living being can enter the timeship through the exterior, as the doors will be deadlocked. Deadlocked doors will prevent even Tardis Keys from unlocking the timeship. After the reconfiguration process is complete, the timeship will allow entry once more and notify all pilots."
}