{
	"credit": "Made with Blockbench",
	"texture_size": [32, 32],
	"textures": {
		"24": "tardis:item/sonics/mk4_emitter"
	},
	"elements": [
		{
			"from": [7.00375, 1.3125, -5.3125],
			"to": [7.3475, 1.8125, -2.75],
			"rotation": {"angle": -45, "axis": "z", "origin": [8, 1.625, 8]},
			"faces": {
				"north": {"uv": [1.5, 4, 2, 4.5], "texture": "#24"},
				"east": {"uv": [3.5, 5, 5, 5.5], "texture": "#24"},
				"south": {"uv": [3.5, 4.5, 4, 5], "texture": "#24"},
				"west": {"uv": [5, 5, 6.5, 5.5], "texture": "#24"},
				"up": {"uv": [1, 6.5, 0.5, 5], "texture": "#24"},
				"down": {"uv": [1.5, 5, 1, 6.5], "texture": "#24"}
			}
		},
		{
			"from": [8.75375, 1.3125, -5.3125],
			"to": [9.12875, 1.8125, -2.75],
			"rotation": {"angle": -45, "axis": "z", "origin": [8, 1.625, 8]},
			"faces": {
				"north": {"uv": [0, 7, 0.5, 7.5], "texture": "#24"},
				"east": {"uv": [5, 0, 6.5, 0.5], "texture": "#24"},
				"south": {"uv": [5.5, 7, 6, 7.5], "texture": "#24"},
				"west": {"uv": [5, 0.5, 6.5, 1], "texture": "#24"},
				"up": {"uv": [5.5, 4.5, 5, 3], "texture": "#24"},
				"down": {"uv": [2, 5.5, 1.5, 7], "texture": "#24"}
			}
		},
		{
			"from": [8.56625, 1.375, -5.75],
			"to": [9.00375, 1.75, -5.3125],
			"rotation": {"angle": -45, "axis": "z", "origin": [8, 1.625, 8]},
			"faces": {
				"north": {"uv": [7, 1, 7.5, 1.5], "texture": "#24"},
				"east": {"uv": [7, 1.5, 7.5, 2], "texture": "#24"},
				"south": {"uv": [7, 2, 7.5, 2.5], "texture": "#24"},
				"west": {"uv": [7, 2.5, 7.5, 3], "texture": "#24"},
				"up": {"uv": [7.5, 3.5, 7, 3], "texture": "#24"},
				"down": {"uv": [7.5, 3.5, 7, 4], "texture": "#24"}
			}
		},
		{
			"from": [7.12875, 1.375, -5.75],
			"to": [7.535, 1.75, -5.28125],
			"rotation": {"angle": -45, "axis": "z", "origin": [8, 1.625, 8]},
			"faces": {
				"north": {"uv": [7, 4, 7.5, 4.5], "texture": "#24"},
				"east": {"uv": [7, 4.5, 7.5, 5], "texture": "#24"},
				"south": {"uv": [7, 5, 7.5, 5.5], "texture": "#24"},
				"west": {"uv": [7, 5.5, 7.5, 6], "texture": "#24"},
				"up": {"uv": [7.5, 6.5, 7, 6], "texture": "#24"},
				"down": {"uv": [7.5, 6.5, 7, 7], "texture": "#24"}
			}
		},
		{
			"from": [6.87875, 1.3125, -5.3125],
			"to": [7.25375, 1.8125, -2.75],
			"rotation": {"angle": 45, "axis": "z", "origin": [8, 1.625, 8]},
			"faces": {
				"north": {"uv": [0, 7.5, 0.5, 8], "texture": "#24"},
				"east": {"uv": [5, 1, 6.5, 1.5], "texture": "#24"},
				"south": {"uv": [0.5, 7.5, 1, 8], "texture": "#24"},
				"west": {"uv": [5, 1.5, 6.5, 2], "texture": "#24"},
				"up": {"uv": [2.5, 7, 2, 5.5], "texture": "#24"},
				"down": {"uv": [3, 5.5, 2.5, 7], "texture": "#24"}
			}
		},
		{
			"from": [8.62875, 1.3125, -5.3125],
			"to": [9.00375, 1.8125, -2.75],
			"rotation": {"angle": 45, "axis": "z", "origin": [8, 1.625, 8]},
			"faces": {
				"north": {"uv": [1, 7.5, 1.5, 8], "texture": "#24"},
				"east": {"uv": [5, 4.5, 6.5, 5], "texture": "#24"},
				"south": {"uv": [1.5, 7.5, 2, 8], "texture": "#24"},
				"west": {"uv": [3, 5.5, 4.5, 6], "texture": "#24"},
				"up": {"uv": [5, 7, 4.5, 5.5], "texture": "#24"},
				"down": {"uv": [5.5, 5.5, 5, 7], "texture": "#24"}
			}
		},
		{
			"from": [8.4725, 1.375, -5.75],
			"to": [8.87875, 1.75, -5.28125],
			"rotation": {"angle": 45, "axis": "z", "origin": [8, 1.625, 8]},
			"faces": {
				"north": {"uv": [2, 7.5, 2.5, 8], "texture": "#24"},
				"east": {"uv": [2.5, 7.5, 3, 8], "texture": "#24"},
				"south": {"uv": [3, 7.5, 3.5, 8], "texture": "#24"},
				"west": {"uv": [3.5, 7.5, 4, 8], "texture": "#24"},
				"up": {"uv": [4.5, 8, 4, 7.5], "texture": "#24"},
				"down": {"uv": [5, 7.5, 4.5, 8], "texture": "#24"}
			}
		},
		{
			"from": [6.9725, 1.375, -5.75],
			"to": [7.44125, 1.75, -5.28125],
			"rotation": {"angle": 45, "axis": "z", "origin": [8, 1.625, 8]},
			"faces": {
				"north": {"uv": [5, 7.5, 5.5, 8], "texture": "#24"},
				"east": {"uv": [5.5, 7.5, 6, 8], "texture": "#24"},
				"south": {"uv": [6, 7.5, 6.5, 8], "texture": "#24"},
				"west": {"uv": [6.5, 7.5, 7, 8], "texture": "#24"},
				"up": {"uv": [7.5, 8, 7, 7.5], "texture": "#24"},
				"down": {"uv": [8, 7.5, 7.5, 8], "texture": "#24"}
			}
		},
		{
			"name": "octagon",
			"from": [1.74023, 2.95738, -2.95485],
			"to": [2.57497, 4.97262, -0.80077],
			"rotation": {"angle": 45, "axis": "z", "origin": [8, 9.8074, 10.81864]},
			"faces": {
				"north": {"uv": [3, 1, 3.5, 2], "texture": "#24"},
				"east": {"uv": [2, 2, 3.5, 3], "texture": "#24"},
				"south": {"uv": [0, 6, 0.5, 7], "texture": "#24"},
				"west": {"uv": [2, 0, 3.5, 1], "texture": "#24"},
				"up": {"uv": [6, 7, 5.5, 5.5], "texture": "#24"},
				"down": {"uv": [6, 2, 5.5, 3.5], "texture": "#24"}
			}
		},
		{
			"name": "octagon",
			"from": [7.58263, 0.53738, -4.33485],
			"to": [8.41737, 2.55262, -0.80077],
			"rotation": {"angle": 0, "axis": "y", "origin": [8, 9.8074, 10.81864]},
			"faces": {
				"north": {"uv": [3, 6, 3.5, 7], "texture": "#24"},
				"east": {"uv": [0, 0, 2, 1], "texture": "#24"},
				"south": {"uv": [3.5, 6, 4, 7], "texture": "#24"},
				"west": {"uv": [0, 1, 2, 2], "texture": "#24"},
				"up": {"uv": [4, 2, 3.5, 0], "texture": "#24"},
				"down": {"uv": [0.5, 4, 0, 6], "texture": "#24"}
			}
		},
		{
			"name": "octagon",
			"from": [1.14998, 3.54763, -2.95485],
			"to": [3.16522, 4.38237, -0.80077],
			"rotation": {"angle": 45, "axis": "z", "origin": [8, 9.8074, 10.81864]},
			"faces": {
				"north": {"uv": [6, 6, 7, 6.5], "texture": "#24"},
				"east": {"uv": [5.5, 3.5, 7, 4], "texture": "#24"},
				"south": {"uv": [6, 2, 7, 2.5], "texture": "#24"},
				"west": {"uv": [5.5, 4, 7, 4.5], "texture": "#24"},
				"up": {"uv": [3, 4.5, 2, 3], "texture": "#24"},
				"down": {"uv": [4, 3, 3, 4.5], "texture": "#24"}
			}
		},
		{
			"name": "octagon",
			"from": [6.99238, 1.12763, -4.33485],
			"to": [9.00762, 1.96237, -0.80077],
			"rotation": {"angle": 0, "axis": "y", "origin": [8, 9.8074, 10.81864]},
			"faces": {
				"north": {"uv": [6, 2.5, 7, 3], "texture": "#24"},
				"east": {"uv": [3.5, 2, 5.5, 2.5], "texture": "#24"},
				"south": {"uv": [6, 3, 7, 3.5], "texture": "#24"},
				"west": {"uv": [3.5, 2.5, 5.5, 3], "texture": "#24"},
				"up": {"uv": [1, 4, 0, 2], "texture": "#24"},
				"down": {"uv": [2, 2, 1, 4], "texture": "#24"}
			}
		},
		{
			"name": "octagon",
			"from": [2.331, 2.82409, -0.81974],
			"to": [3.08696, 4.64914, 1.45224],
			"rotation": {"angle": 45, "axis": "z", "origin": [8, 9.02764, 9.18545]},
			"faces": {
				"north": {"uv": [4, 6, 4.5, 7], "texture": "#24"},
				"east": {"uv": [2, 1, 3, 2], "texture": "#24"},
				"south": {"uv": [0.5, 6.5, 1, 7.5], "texture": "#24"},
				"west": {"uv": [0.5, 4, 1.5, 5], "texture": "#24"},
				"up": {"uv": [1.5, 7.5, 1, 6.5], "texture": "#24"},
				"down": {"uv": [6.5, 6.5, 6, 7.5], "texture": "#24"}
			}
		},
		{
			"name": "octagon",
			"from": [7.62202, 0.63248, -0.81974],
			"to": [8.37798, 2.45752, 1.45224],
			"rotation": {"angle": 0, "axis": "y", "origin": [8, 9.02764, 9.18545]},
			"faces": {
				"north": {"uv": [6.5, 6.5, 7, 7.5], "texture": "#24"},
				"east": {"uv": [4, 4, 5, 5], "texture": "#24"},
				"south": {"uv": [6.5, 0, 7, 1], "texture": "#24"},
				"west": {"uv": [4, 0, 5, 1], "texture": "#24"},
				"up": {"uv": [7, 2, 6.5, 1], "texture": "#24"},
				"down": {"uv": [7, 4.5, 6.5, 5.5], "texture": "#24"}
			}
		},
		{
			"name": "octagon",
			"from": [1.79646, 3.35863, -0.81974],
			"to": [3.6215, 4.11459, 1.45224],
			"rotation": {"angle": 45, "axis": "z", "origin": [8, 9.02764, 9.18545]},
			"faces": {
				"north": {"uv": [6, 5.5, 7, 6], "texture": "#24"},
				"east": {"uv": [1.5, 7, 2.5, 7.5], "texture": "#24"},
				"south": {"uv": [2.5, 7, 3.5, 7.5], "texture": "#24"},
				"west": {"uv": [3.5, 7, 4.5, 7.5], "texture": "#24"},
				"up": {"uv": [5, 2, 4, 1], "texture": "#24"},
				"down": {"uv": [5, 3, 4, 4], "texture": "#24"}
			}
		},
		{
			"name": "octagon",
			"from": [7.08748, 1.16702, -0.81974],
			"to": [8.91252, 1.92298, 1.45224],
			"rotation": {"angle": 0, "axis": "y", "origin": [8, 9.02764, 9.18545]},
			"faces": {
				"north": {"uv": [4.5, 7, 5.5, 7.5], "texture": "#24"},
				"east": {"uv": [7, 7, 8, 7.5], "texture": "#24"},
				"south": {"uv": [7, 0, 8, 0.5], "texture": "#24"},
				"west": {"uv": [7, 0.5, 8, 1], "texture": "#24"},
				"up": {"uv": [2.5, 5.5, 1.5, 4.5], "texture": "#24"},
				"down": {"uv": [3.5, 4.5, 2.5, 5.5], "texture": "#24"}
			}
		},
		{
			"name": "octagon",
			"from": [4.87012, 2.25119, -4.60289],
			"to": [5.28748, 3.25881, -4.26461],
			"rotation": {"angle": 45, "axis": "z", "origin": [8, 5.6762, 5.05385]},
			"faces": {
				"north": {"uv": [7.5, 1, 8, 1.5], "texture": "#24"},
				"east": {"uv": [7.5, 1.5, 8, 2], "texture": "#24"},
				"south": {"uv": [7.5, 2, 8, 2.5], "texture": "#24"},
				"west": {"uv": [7.5, 2.5, 8, 3], "texture": "#24"},
				"up": {"uv": [8, 3.5, 7.5, 3], "texture": "#24"},
				"down": {"uv": [8, 3.5, 7.5, 4], "texture": "#24"}
			}
		},
		{
			"name": "octagon",
			"from": [7.79132, 1.04119, -4.60289],
			"to": [8.20868, 2.04881, -4.26461],
			"rotation": {"angle": 0, "axis": "y", "origin": [8, 5.6762, 5.05385]},
			"faces": {
				"north": {"uv": [7.5, 4, 8, 4.5], "texture": "#24"},
				"east": {"uv": [7.5, 4.5, 8, 5], "texture": "#24"},
				"south": {"uv": [7.5, 5, 8, 5.5], "texture": "#24"},
				"west": {"uv": [7.5, 5.5, 8, 6], "texture": "#24"},
				"up": {"uv": [8, 6.5, 7.5, 6], "texture": "#24"},
				"down": {"uv": [8, 6.5, 7.5, 7], "texture": "#24"}
			}
		},
		{
			"name": "octagon",
			"from": [4.57499, 2.54632, -4.60289],
			"to": [5.58261, 2.96368, -4.26461],
			"rotation": {"angle": 45, "axis": "z", "origin": [8, 5.6762, 5.05385]},
			"faces": {
				"north": {"uv": [0, 8, 0.5, 8.5], "texture": "#24"},
				"east": {"uv": [0.5, 8, 1, 8.5], "texture": "#24"},
				"south": {"uv": [1, 8, 1.5, 8.5], "texture": "#24"},
				"west": {"uv": [1.5, 8, 2, 8.5], "texture": "#24"},
				"up": {"uv": [2.5, 8.5, 2, 8], "texture": "#24"},
				"down": {"uv": [3, 8, 2.5, 8.5], "texture": "#24"}
			}
		},
		{
			"name": "octagon",
			"from": [7.49619, 1.33632, -4.60289],
			"to": [8.50381, 1.75368, -4.26461],
			"rotation": {"angle": 0, "axis": "y", "origin": [8, 5.6762, 5.05385]},
			"faces": {
				"north": {"uv": [3, 8, 3.5, 8.5], "texture": "#24"},
				"east": {"uv": [3.5, 8, 4, 8.5], "texture": "#24"},
				"south": {"uv": [4, 8, 4.5, 8.5], "texture": "#24"},
				"west": {"uv": [4.5, 8, 5, 8.5], "texture": "#24"},
				"up": {"uv": [5.5, 8.5, 5, 8], "texture": "#24"},
				"down": {"uv": [6, 8, 5.5, 8.5], "texture": "#24"}
			}
		},
		{
			"name": "octagon",
			"from": [5.74648, 2.05346, -6.36053],
			"to": [6.04699, 2.77894, -5.44447],
			"rotation": {"angle": 45, "axis": "z", "origin": [8, 4.51946, 3.20232]},
			"faces": {
				"north": {"uv": [6, 8, 6.5, 8.5], "texture": "#24"},
				"east": {"uv": [6.5, 8, 7, 8.5], "texture": "#24"},
				"south": {"uv": [7, 8, 7.5, 8.5], "texture": "#24"},
				"west": {"uv": [7.5, 8, 8, 8.5], "texture": "#24"},
				"up": {"uv": [8.5, 8.5, 8, 8], "texture": "#24"},
				"down": {"uv": [8.5, 0, 8, 0.5], "texture": "#24"}
			}
		},
		{
			"name": "octagon",
			"from": [7.84975, 1.18226, -6.36053],
			"to": [8.15025, 1.90774, -5.44447],
			"rotation": {"angle": 0, "axis": "y", "origin": [8, 4.51946, 3.20232]},
			"faces": {
				"north": {"uv": [8, 0.5, 8.5, 1], "texture": "#24"},
				"east": {"uv": [8, 1, 8.5, 1.5], "texture": "#24"},
				"south": {"uv": [8, 1.5, 8.5, 2], "texture": "#24"},
				"west": {"uv": [8, 2, 8.5, 2.5], "texture": "#24"},
				"up": {"uv": [8.5, 3, 8, 2.5], "texture": "#24"},
				"down": {"uv": [8.5, 3, 8, 3.5], "texture": "#24"}
			}
		},
		{
			"name": "octagon",
			"from": [5.53399, 2.26595, -6.36053],
			"to": [6.25948, 2.56645, -5.44447],
			"rotation": {"angle": 45, "axis": "z", "origin": [8, 4.51946, 3.20232]},
			"faces": {
				"north": {"uv": [8, 3.5, 8.5, 4], "texture": "#24"},
				"east": {"uv": [8, 4, 8.5, 4.5], "texture": "#24"},
				"south": {"uv": [8, 4.5, 8.5, 5], "texture": "#24"},
				"west": {"uv": [8, 5, 8.5, 5.5], "texture": "#24"},
				"up": {"uv": [8.5, 6, 8, 5.5], "texture": "#24"},
				"down": {"uv": [8.5, 6, 8, 6.5], "texture": "#24"}
			}
		},
		{
			"name": "octagon",
			"from": [7.63726, 1.39475, -6.36053],
			"to": [8.36274, 1.69525, -5.44447],
			"rotation": {"angle": 0, "axis": "y", "origin": [8, 4.51946, 3.20232]},
			"faces": {
				"north": {"uv": [8, 6.5, 8.5, 7], "texture": "#24"},
				"east": {"uv": [8, 7, 8.5, 7.5], "texture": "#24"},
				"south": {"uv": [8, 7.5, 8.5, 8], "texture": "#24"},
				"west": {"uv": [0, 8.5, 0.5, 9], "texture": "#24"},
				"up": {"uv": [1, 9, 0.5, 8.5], "texture": "#24"},
				"down": {"uv": [1.5, 8.5, 1, 9], "texture": "#24"}
			}
		},
		{
			"name": "octagon",
			"from": [4.84508, 2.25684, -6.21875],
			"to": [5.26578, 3.27252, -5.64875],
			"rotation": {"angle": 45, "axis": "z", "origin": [8, 5.70925, 5.438]},
			"faces": {
				"north": {"uv": [1.5, 8.5, 2, 9], "texture": "#24"},
				"east": {"uv": [2, 8.5, 2.5, 9], "texture": "#24"},
				"south": {"uv": [2.5, 8.5, 3, 9], "texture": "#24"},
				"west": {"uv": [3, 8.5, 3.5, 9], "texture": "#24"},
				"up": {"uv": [4, 9, 3.5, 8.5], "texture": "#24"},
				"down": {"uv": [4.5, 8.5, 4, 9], "texture": "#24"}
			}
		},
		{
			"name": "octagon",
			"from": [7.78965, 1.03716, -6.21875],
			"to": [8.21035, 2.05284, -5.64875],
			"rotation": {"angle": 0, "axis": "y", "origin": [8, 5.70925, 5.438]},
			"faces": {
				"north": {"uv": [4.5, 8.5, 5, 9], "texture": "#24"},
				"east": {"uv": [5, 8.5, 5.5, 9], "texture": "#24"},
				"south": {"uv": [5.5, 8.5, 6, 9], "texture": "#24"},
				"west": {"uv": [6, 8.5, 6.5, 9], "texture": "#24"},
				"up": {"uv": [7, 9, 6.5, 8.5], "texture": "#24"},
				"down": {"uv": [7.5, 8.5, 7, 9], "texture": "#24"}
			}
		},
		{
			"name": "octagon",
			"from": [4.54759, 2.55433, -6.21875],
			"to": [5.56327, 2.97503, -5.64875],
			"rotation": {"angle": 45, "axis": "z", "origin": [8, 5.70925, 5.438]},
			"faces": {
				"north": {"uv": [7.5, 8.5, 8, 9], "texture": "#24"},
				"east": {"uv": [8, 8.5, 8.5, 9], "texture": "#24"},
				"south": {"uv": [8.5, 8.5, 9, 9], "texture": "#24"},
				"west": {"uv": [8.5, 0, 9, 0.5], "texture": "#24"},
				"up": {"uv": [9, 1, 8.5, 0.5], "texture": "#24"},
				"down": {"uv": [9, 1, 8.5, 1.5], "texture": "#24"}
			}
		},
		{
			"name": "octagon",
			"from": [7.49216, 1.33465, -6.21875],
			"to": [8.50784, 1.75535, -5.64875],
			"rotation": {"angle": 0, "axis": "y", "origin": [8, 5.70925, 5.438]},
			"faces": {
				"north": {"uv": [8.5, 1.5, 9, 2], "texture": "#24"},
				"east": {"uv": [8.5, 2, 9, 2.5], "texture": "#24"},
				"south": {"uv": [8.5, 2.5, 9, 3], "texture": "#24"},
				"west": {"uv": [8.5, 3, 9, 3.5], "texture": "#24"},
				"up": {"uv": [9, 4, 8.5, 3.5], "texture": "#24"},
				"down": {"uv": [9, 4, 8.5, 4.5], "texture": "#24"}
			}
		},
		{
			"name": "octagon",
			"from": [4.24438, 2.39238, -5.47576],
			"to": [4.74519, 3.60144, -4.61049],
			"rotation": {"angle": 45, "axis": "z", "origin": [8, 6.50212, 6.97288]},
			"faces": {
				"north": {"uv": [8.5, 4.5, 9, 5], "texture": "#24"},
				"east": {"uv": [8.5, 5, 9, 5.5], "texture": "#24"},
				"south": {"uv": [8.5, 5.5, 9, 6], "texture": "#24"},
				"west": {"uv": [8.5, 6, 9, 6.5], "texture": "#24"},
				"up": {"uv": [9, 7, 8.5, 6.5], "texture": "#24"},
				"down": {"uv": [9, 7, 8.5, 7.5], "texture": "#24"}
			}
		},
		{
			"name": "octagon",
			"from": [7.7496, 0.94047, -5.47576],
			"to": [8.2504, 2.14953, -4.61049],
			"rotation": {"angle": 0, "axis": "y", "origin": [8, 6.50212, 6.97288]},
			"faces": {
				"north": {"uv": [8.5, 7.5, 9, 8], "texture": "#24"},
				"east": {"uv": [8.5, 8, 9, 8.5], "texture": "#24"},
				"south": {"uv": [0, 9, 0.5, 9.5], "texture": "#24"},
				"west": {"uv": [0.5, 9, 1, 9.5], "texture": "#24"},
				"up": {"uv": [1.5, 9.5, 1, 9], "texture": "#24"},
				"down": {"uv": [2, 9, 1.5, 9.5], "texture": "#24"}
			}
		},
		{
			"name": "octagon",
			"from": [3.89025, 2.7465, -5.47576],
			"to": [5.09932, 3.24731, -4.61049],
			"rotation": {"angle": 45, "axis": "z", "origin": [8, 6.50212, 6.97288]},
			"faces": {
				"north": {"uv": [2, 9, 2.5, 9.5], "texture": "#24"},
				"east": {"uv": [2.5, 9, 3, 9.5], "texture": "#24"},
				"south": {"uv": [3, 9, 3.5, 9.5], "texture": "#24"},
				"west": {"uv": [3.5, 9, 4, 9.5], "texture": "#24"},
				"up": {"uv": [4.5, 9.5, 4, 9], "texture": "#24"},
				"down": {"uv": [5, 9, 4.5, 9.5], "texture": "#24"}
			}
		},
		{
			"name": "octagon",
			"from": [7.39547, 1.2946, -5.47576],
			"to": [8.60453, 1.7954, -4.61049],
			"rotation": {"angle": 0, "axis": "y", "origin": [8, 6.50212, 6.97288]},
			"faces": {
				"north": {"uv": [5, 9, 5.5, 9.5], "texture": "#24"},
				"east": {"uv": [5.5, 9, 6, 9.5], "texture": "#24"},
				"south": {"uv": [6, 9, 6.5, 9.5], "texture": "#24"},
				"west": {"uv": [6.5, 9, 7, 9.5], "texture": "#24"},
				"up": {"uv": [7.5, 9.5, 7, 9], "texture": "#24"},
				"down": {"uv": [8, 9, 7.5, 9.5], "texture": "#24"}
			}
		},
		{
			"name": "octagon",
			"from": [3.71201, 2.51249, -5.31656],
			"to": [4.28381, 3.89295, -4.76969],
			"rotation": {"angle": 45, "axis": "z", "origin": [8, 7.20481, 7.72239]},
			"faces": {
				"north": {"uv": [8, 9, 8.5, 9.5], "texture": "#24"},
				"east": {"uv": [8.5, 9, 9, 9.5], "texture": "#24"},
				"south": {"uv": [9, 9, 9.5, 9.5], "texture": "#24"},
				"west": {"uv": [9, 0, 9.5, 0.5], "texture": "#24"},
				"up": {"uv": [9.5, 1, 9, 0.5], "texture": "#24"},
				"down": {"uv": [9.5, 1, 9, 1.5], "texture": "#24"}
			}
		},
		{
			"name": "octagon",
			"from": [7.7141, 0.85477, -5.31656],
			"to": [8.2859, 2.23523, -4.76969],
			"rotation": {"angle": 0, "axis": "y", "origin": [8, 7.20481, 7.72239]},
			"faces": {
				"north": {"uv": [9, 1.5, 9.5, 2], "texture": "#24"},
				"east": {"uv": [9, 2, 9.5, 2.5], "texture": "#24"},
				"south": {"uv": [9, 2.5, 9.5, 3], "texture": "#24"},
				"west": {"uv": [9, 3, 9.5, 3.5], "texture": "#24"},
				"up": {"uv": [9.5, 4, 9, 3.5], "texture": "#24"},
				"down": {"uv": [9.5, 4, 9, 4.5], "texture": "#24"}
			}
		},
		{
			"name": "octagon",
			"from": [3.30768, 2.91682, -5.31656],
			"to": [4.68813, 3.48862, -4.76969],
			"rotation": {"angle": 45, "axis": "z", "origin": [8, 7.20481, 7.72239]},
			"faces": {
				"north": {"uv": [9, 4.5, 9.5, 5], "texture": "#24"},
				"east": {"uv": [9, 5, 9.5, 5.5], "texture": "#24"},
				"south": {"uv": [9, 5.5, 9.5, 6], "texture": "#24"},
				"west": {"uv": [9, 6, 9.5, 6.5], "texture": "#24"},
				"up": {"uv": [9.5, 7, 9, 6.5], "texture": "#24"},
				"down": {"uv": [9.5, 7, 9, 7.5], "texture": "#24"}
			}
		},
		{
			"name": "octagon",
			"from": [7.30977, 1.2591, -5.31656],
			"to": [8.69023, 1.8309, -4.76969],
			"rotation": {"angle": 0, "axis": "y", "origin": [8, 7.20481, 7.72239]},
			"faces": {
				"north": {"uv": [9, 7.5, 9.5, 8], "texture": "#24"},
				"east": {"uv": [9, 8, 9.5, 8.5], "texture": "#24"},
				"south": {"uv": [9, 8.5, 9.5, 9], "texture": "#24"},
				"west": {"uv": [0, 9.5, 0.5, 10], "texture": "#24"},
				"up": {"uv": [1, 10, 0.5, 9.5], "texture": "#24"},
				"down": {"uv": [1.5, 9.5, 1, 10], "texture": "#24"}
			}
		}
	],
	"display": {
		"thirdperson_righthand": {
			"rotation": [90, 0, 0],
			"translation": [0, 0, 3],
			"scale": [0.5, 0.5, 0.5]
		},
		"thirdperson_lefthand": {
			"rotation": [90, 0, 0],
			"translation": [0, 0, 3],
			"scale": [0.5, 0.5, 0.5]
		},
		"firstperson_righthand": {
			"rotation": [90, 0, 30]
		},
		"firstperson_lefthand": {
			"rotation": [90, 0, 30]
		},
		"fixed": {
			"rotation": [90, 45, 0],
			"translation": [1.25, -1.75, 6]
		},
		"ground": {
			"translation": [0, 4, 0]
		},
		"gui": {
			"rotation": [90, 0, 30],
			"translation": [-3, -8, 0]
		}
	}
}