{
  "type": "normal",
  "text": "This chapter identifies and explains how to deal with in-flight hazards and events. Most events are hazardous to your timeship's health and require pilot input. Other events are beneficial and offer no negative impacts. Some common flight events are Vortex Scrap, Time Winds, Spatial Drift, Low Artron Flow, Exterior Bulkhead, Dimensional Drift, Vertical Displacement and Time Ram."
}